…
day is the measure for precision

n=7 specifies that the grouping should be done every 7
days (1 week)

cases_per_week<-ebola_data%>%
  dplyr::mutate(date_of_onset = clock::date_group(date_of_onset, "day", n=7))%>%
  group_by(date_of_onset)%>%
  count(date_of_onset)%>%
  arrange(desc(n)) #arranges the data in descending order from the date with the highest ebola case count.

cases_per_week

## # A tibble: 79 × 2
## # Groups:   date_of_onset [79]
##    date_of_onset     n
##    <date>        <int>
##  1 2014-11-15      573
##  2 2014-11-01      528
##  3 2014-11-08      507
##  4 2014-10-01      495
##  5 2014-10-22      482
##  6 2014-11-22      465
##  7 2014-09-15      464
##  8 2014-10-15      451
##  9 2014-10-08      446
## 10 2014-09-22      432
## # … with 69 more rows
…
